<session jtag_chain="DE-SoC [1-10]" jtag_device="@2: 5CSE(BA5|MA5)/5CSTFD5D5/.. (0x02D120DD)" sof_file="">
  <display_tree gui_logging_enabled="0"/>
  <global_info>
    <multi attribute="column width" size="23" value="34,34,220,74,53,78,95,96,98,98,88,88,110,101,101,101,101,101,101,101,101,107,78"/>
    <single attribute="active instance" value="0"/>
    <single attribute="lock mode" value="0"/>
    <multi attribute="frame size" size="2" value="1848,1163"/>
    <single attribute="jtag widget visible" value="1"/>
    <multi attribute="jtag widget size" size="2" value="349,145"/>
    <single attribute="instance widget visible" value="1"/>
    <single attribute="config widget visible" value="1"/>
    <single attribute="hierarchy widget visible" value="1"/>
    <single attribute="data log widget visible" value="1"/>
  </global_info>
  <instance enabled="true" entity_name="sld_signaltap" is_auto_node="yes" name="auto_signaltap_0" source_file="sld_signaltap.vhd">
    <node_ip_info instance_id="0" mfg_id="110" node_id="0" version="6"/>
    <position_info>
      <single attribute="active tab" value="1"/>
      <single attribute="setup vertical scroll position" value="0"/>
      <single attribute="setup horizontal scroll position" value="0"/>
    </position_info>
  </instance>
  <mnemonics/>
</session>
